/*******************************(5,5)-isogenies********************************/
lA:=2;
lB:=5;
a:=93;
b:=104;
d:=1;
p:=lA^a*lB^b-1;
u:=2186748323477221906254017627751826127;
v:=192686550776697339398400691496753224;

lA:=2;
lB:=5;
a:=216;
b:=115;
d:=1;
p:=lA^a*lB^b-1;
u:=1577077150415641085674570899489288332933;
v:=7717740451551238479590719089100388363955;

lA:=2;
lB:=5;
a:=109;
b:=216;
d:=1;
p:=lA^a*lB^b-1;
u:=2983646829064332178205032504306952822442444513771657678972952076495592528977;
v:=385168581654239585337819134604663447516571543437253738382718842281557384664;

lA:=3;
lB:=5;
a:=79;
b:=88;
p:=4*lA^a*lB^b-1;
d:=4;
u:=1821161381490186061352188026791;
v:=2692355562533550310210058721537;

/*******************************(7,7)-isogenies********************************/
lA:=2;
lB:=7;
a:=113;
b:=106;
d:=1;
p:=lA^a*lB^b-1;
u:=87247427288772587484886181510313815866997809;
v:=305336213587716079375712084643830891243652838;

lA:=3;
lB:=7;
a:=102;
b:=73;
d:=2;
p:=4*lA^a*lB^b-1;
u:=456268815867773841041197288535;
v:=3500484042237666581195414824929;

lA:=5;
lB:=7;
a:=107;
b:=102;
d:=4;
p:=4*lA^a*lB^b-1;
u:=8038619674729248626576409340470940550982085;
v:=4844325099903075772537269722927561933783759;

/*******************************(11,11)-isogenies********************************/
lA:=2;
lB:=11;
a:=99;
b:=80;
d:=1;
p:=lA^a*lB^b-1;
u:=300679125660691151755246620987381057377377;
v:=169139058802564058703042134386849335149864;

